<?xml version="1.0" encoding="UTF-8"?>
<svg width="22px" height="22px" viewBox="0 0 22 22" version="1.1" xmlns="http://www.w3.org/2000/svg" xmlns:xlink="http://www.w3.org/1999/xlink">
    <!-- Generator: Sketch 46.1 (44463) - http://www.bohemiancoding.com/sketch -->
    <title>add client</title>
    <desc>Created with Sketch.</desc>
    <defs></defs>
    <g id="Symbols" stroke="none" stroke-width="1" fill="none" fill-rule="evenodd">
        <g id="add-client">
            <rect id="Rectangle" x="0" y="0" width="22" height="22"></rect>
            <path d="M14.1699,18.7413 C11.1379,18.7413 8.6699,16.2743 8.6699,13.2413 C8.6699,10.2083 11.1379,7.7413 14.1699,7.7413 C17.2019,7.7413 19.6699,10.2083 19.6699,13.2413 C19.6699,16.2743 17.2019,18.7413 14.1699,18.7413 M14.1699,5.7413 C11.4359,5.7413 9.0449,7.2163 7.7349,9.4083 C7.3629,9.3273 6.9839,9.2473 6.5939,9.2473 C2.9669,9.2473 -0.0001,12.1513 -0.0001,15.7783 L-0.0001,18.4693 C-0.0001,18.9763 0.4149,19.3903 0.9209,19.3903 L9.8889,19.3903 C11.1039,20.2393 12.5779,20.7413 14.1699,20.7413 C18.3059,20.7413 21.6699,17.3773 21.6699,13.2413 C21.6699,9.1053 18.3059,5.7413 14.1699,5.7413 M16.9999,12.3903 L14.9999,12.3903 L14.9999,10.3903 C14.9999,9.8383 14.5529,9.3903 13.9999,9.3903 C13.4469,9.3903 12.9999,9.8383 12.9999,10.3903 L12.9999,12.3903 L10.9999,12.3903 C10.4469,12.3903 9.9999,12.8383 9.9999,13.3903 C9.9999,13.9433 10.4469,14.3903 10.9999,14.3903 L12.9999,14.3903 L12.9999,16.3903 C12.9999,16.9433 13.4469,17.3903 13.9999,17.3903 C14.5529,17.3903 14.9999,16.9433 14.9999,16.3903 L14.9999,14.3903 L16.9999,14.3903 C17.5529,14.3903 17.9999,13.9433 17.9999,13.3903 C17.9999,12.8383 17.5529,12.3903 16.9999,12.3903 M6.4659,7.8313 C8.3529,7.8313 9.8819,6.3023 9.8819,4.4153 C9.8819,2.5293 8.3529,1.0003 6.4659,1.0003 C4.5799,1.0003 3.0509,2.5293 3.0509,4.4153 C3.0509,6.3023 4.5799,7.8313 6.4659,7.8313" fill="#FFFFFF"></path>
        </g>
    </g>
</svg>