<?xml version="1.0" encoding="UTF-8"?>
<svg width="22px" height="22px" viewBox="0 0 22 22" version="1.1" xmlns="http://www.w3.org/2000/svg" xmlns:xlink="http://www.w3.org/1999/xlink">
    <!-- Generator: Sketch 46.1 (44463) - http://www.bohemiancoding.com/sketch -->
    <title>icon/clock black</title>
    <desc>Created with Sketch.</desc>
    <defs></defs>
    <g id="Symbols" stroke="none" stroke-width="1" fill="none" fill-rule="evenodd">
        <g id="icon/clock-black">
            <rect id="Rectangle" x="0" y="0" width="22" height="22"></rect>
            <path d="M15.7737895,13.3883158 C15.6127368,13.7322105 15.2716842,13.9349474 14.9145263,13.9349474 C14.78,13.9349474 14.6710526,13.9055789 14.5412632,13.8458947 L10.2733684,11.8393684 L10.2733684,5.91547368 C10.2733684,5.39252632 10.6968421,4.96810526 11.2207368,4.96810526 C11.7446316,4.96810526 12.1681053,5.39252632 12.1681053,5.91547368 L12.1681053,10.6324211 L15.3427368,12.1292632 C15.8173684,12.35 15.9945263,12.9146316 15.7737895,13.3883158 M11,2 C6.02915789,2 2,6.03010526 2,11 C2,15.9708421 6.02915789,20 11,20 C15.9698947,20 20,15.9708421 20,11 C20,6.03010526 15.9698947,2 11,2" id="Fill-1" fill="#373737"></path>
        </g>
    </g>
</svg>