<?xml version="1.0" encoding="UTF-8"?>
<svg width="22px" height="22px" viewBox="0 0 22 22" version="1.1" xmlns="http://www.w3.org/2000/svg" xmlns:xlink="http://www.w3.org/1999/xlink">
    <!-- Generator: Sketch 46.1 (44463) - http://www.bohemiancoding.com/sketch -->
    <title>icon/export</title>
    <desc>Created with Sketch.</desc>
    <defs></defs>
    <g id="Symbols" stroke="none" stroke-width="1" fill="none" fill-rule="evenodd">
        <g id="icon/export" fill="#373737">
            <path d="M3.43956374,6.96192716 L12.8080348,6.96192716 L12.8080348,5.91129678 L3.43956374,5.91129678 L3.43956374,6.96192716 Z M3.43956374,9.67570542 L12.8080348,9.67570542 L12.8080348,8.62507505 L3.43956374,8.62507505 L3.43956374,9.67570542 Z M3.43956374,12.3905343 L10.2255854,12.3905343 L10.2255854,11.3399039 L3.43956374,11.3399039 L3.43956374,12.3905343 Z M14.3598159,3 L1.75855513,3 C1.33935361,3 1,3.33935361 1,3.75855513 L1,18.9202021 C1,19.3394036 1.33935361,19.6787573 1.75855513,19.6787573 L14.3598159,19.6787573 C14.7790174,19.6787573 15.118371,19.3394036 15.118371,18.9202021 L15.118371,3.75855513 C15.118371,3.33935361 14.7790174,3 14.3598159,3 L14.3598159,3 Z M22,11.5920552 L17.8752251,7.41790074 L17.8752251,9.7198319 L16.2446468,9.7198319 L16.2446468,13.2657094 L17.8752251,13.2657094 L17.8752251,15.7651591 L22,11.5920552 Z" id="Page-1"></path>
        </g>
    </g>
</svg>