<?xml version="1.0" encoding="UTF-8"?>
<svg width="73px" height="70px" viewBox="0 0 73 70" version="1.1" xmlns="http://www.w3.org/2000/svg" xmlns:xlink="http://www.w3.org/1999/xlink">
    <!-- Generator: Sketch 46.1 (44463) - http://www.bohemiancoding.com/sketch -->
    <title>icon/home-administer</title>
    <desc>Created with Sketch.</desc>
    <defs>
        <polygon id="path-1" points="0 69.373 72.733 69.373 72.733 0 0 0"></polygon>
    </defs>
    <g id="Proto---general" stroke="none" stroke-width="1" fill="none" fill-rule="evenodd">
        <g id="Home-main" transform="translate(-144.000000, -174.000000)">
            <g id="home-main-action" transform="translate(24.000000, 129.000000)">
                <g id="icon/home-administer" transform="translate(120.000000, 45.000000)">
                    <path d="M61.2232,12.1294 L66.3702,12.1294 C69.3322,12.1294 71.7332,14.2644 71.7332,16.8994 L71.7332,48.6974 C71.7332,51.3314 69.3322,53.4674 66.3702,53.4674 L33.9702,53.4674 C31.0082,53.4674 28.6072,51.3314 28.6072,48.6974 L28.6072,16.8994 C28.6072,14.2644 31.0082,12.1294 33.9702,12.1294 L39.1762,12.1294 L61.2232,12.1294 Z" id="Fill-1" fill="#FFFFFF"></path>
                    <path d="M33.9702,13.1294 C31.5358672,13.1294 29.6072,14.8446817 29.6072,16.8994 L29.6072,48.6974 C29.6072,50.7514998 31.5362833,52.4674 33.9702,52.4674 L66.3702,52.4674 C68.8041167,52.4674 70.7332,50.7514998 70.7332,48.6974 L70.7332,16.8994 C70.7332,14.8446817 68.8045328,13.1294 66.3702,13.1294 L33.9702,13.1294 Z M66.3702,11.1294 C69.8602677,11.1294 72.7332,13.6844744 72.7332,16.8994 L72.7332,48.6974 C72.7332,51.9116348 69.8599071,54.4674 66.3702,54.4674 L33.9702,54.4674 C30.4804929,54.4674 27.6072,51.9116348 27.6072,48.6974 L27.6072,16.8994 C27.6072,13.6844744 30.4801323,11.1294 33.9702,11.1294 L66.3702,11.1294 Z" id="Stroke-3" fill="#2E47B4" fill-rule="nonzero"></path>
                    <path d="M57.3102,8.4421 L59.7842,8.4421 C61.0602,8.4421 62.0942,9.4761 62.0942,10.7521 L62.0942,15.6721 C62.0942,16.9471 61.0602,17.9821 59.7842,17.9821 L40.5552,17.9821 C39.2802,17.9821 38.2462,16.9471 38.2462,15.6721 L38.2462,10.7521 C38.2462,9.4761 39.2802,8.4421 40.5552,8.4421 L43.0302,8.4421 L43.0152,8.1041 C43.0152,4.1811 46.1962,1.0001 50.1202,1.0001 L50.2202,1.0001 C54.1442,1.0001 57.3252,4.1811 57.3252,8.1041 L57.3102,8.4421 Z" id="Fill-5" fill="#FFFFFF"></path>
                    <path d="M56.2648371,9.4421 L56.3111833,8.39776494 L56.3252,8.1041 C56.3252,4.73325189 53.5917824,2.0001 50.2202,2.0001 L50.1202,2.0001 C46.7486176,2.0001 44.0152,4.73325189 44.0142167,8.05976494 L44.0755629,9.4421 L40.5552,9.4421 C39.8323971,9.4421 39.2462,10.0284725 39.2462,10.7521 L39.2462,15.6721 C39.2462,16.3951398 39.8328093,16.9821 40.5552,16.9821 L59.7842,16.9821 C60.507503,16.9821 61.0942,16.3952276 61.0942,15.6721 L61.0942,10.7521 C61.0942,10.0283847 60.5079153,9.4421 59.7842,9.4421 L56.2648371,9.4421 Z M59.7842,7.4421 C61.6124847,7.4421 63.0942,8.92381525 63.0942,10.7521 L63.0942,15.6721 C63.0942,17.4996632 61.6122064,18.9821 59.7842,18.9821 L40.5552,18.9821 C38.7279719,18.9821 37.2462,17.4994416 37.2462,15.6721 L37.2462,10.7521 C37.2462,8.92403684 38.7276937,7.4421 40.5552,7.4421 L42.0418567,7.4421 C42.3787448,3.27622962 45.8670055,0.0001 50.1202,0.0001 L50.2202,0.0001 C54.4605587,0.0001 57.9405937,3.25648529 58.2945712,7.4421 L59.7842,7.4421 Z" id="Stroke-7" fill="#2E47B4" fill-rule="nonzero"></path>
                    <path d="M57.8391,68.373 L5.4941,68.373 C3.0121,68.373 1.0001,66.361 1.0001,63.879 L1.0001,28.327 C1.0001,25.845 3.0121,23.832 5.4941,23.832 L57.8391,23.832 C60.3211,23.832 62.3331,25.845 62.3331,28.327 L62.3331,63.879 C62.3331,66.361 60.3211,68.373 57.8391,68.373" id="Fill-9" fill="#FFFFFF"></path>
                    <path d="M57.8391,67.373 C59.7688153,67.373 61.3331,65.8087153 61.3331,63.879 L61.3331,28.327 C61.3331,26.3970252 59.7685557,24.832 57.8391,24.832 L5.4941,24.832 C3.56464426,24.832 2.0001,26.3970252 2.0001,28.327 L2.0001,63.879 C2.0001,65.8087153 3.56438475,67.373 5.4941,67.373 L57.8391,67.373 Z M57.8391,69.373 L5.4941,69.373 C2.45981525,69.373 0.0001,66.9132847 0.0001,63.879 L0.0001,28.327 C0.0001,25.2925933 2.45993712,22.832 5.4941,22.832 L57.8391,22.832 C60.8732629,22.832 63.3331,25.2925933 63.3331,28.327 L63.3331,63.879 C63.3331,66.9132847 60.8733847,69.373 57.8391,69.373 Z" id="Stroke-11" fill="#05BDFF" fill-rule="nonzero"></path>
                    <mask id="mask-2" fill="white">
                        <use xlink:href="#path-1"></use>
                    </mask>
                    <g id="Clip-14"></g>
                    <polygon id="Fill-13" fill="#DCF8FF" mask="url(#mask-2)" points="7 62.706 53 62.706 53 29.5 7 29.5"></polygon>
                    <path d="M6,63.706 L6,28.5 L54,28.5 L54,63.706 L6,63.706 Z M52,61.706 L52,30.5 L8,30.5 L8,61.706 L52,61.706 Z" id="Stroke-15" fill="#05BDFF" fill-rule="nonzero" mask="url(#mask-2)"></path>
                    <path d="M59.1658,46.1027 C59.1658,46.9767 58.4568,47.6857 57.5828,47.6857 C56.7088,47.6857 55.9998,46.9767 55.9998,46.1027 C55.9998,45.2287 56.7088,44.5197 57.5828,44.5197 C58.4568,44.5197 59.1658,45.2287 59.1658,46.1027" id="Fill-16" fill="#05BDFF" mask="url(#mask-2)"></path>
                    <path d="M52.555,8.3026 C52.555,9.6196 51.487,10.6876 50.17,10.6876 C48.853,10.6876 47.785,9.6196 47.785,8.3026 C47.785,6.9856 48.853,5.9176 50.17,5.9176 C51.487,5.9176 52.555,6.9856 52.555,8.3026" id="Fill-17" fill="#2E47B4" mask="url(#mask-2)"></path>
                    <path d="M45.6179932,28.7920932 L34.0479932,40.3620932 C33.6574689,40.7526175 33.6574689,41.3857825 34.0479932,41.7763068 C34.4385175,42.1668311 35.0716825,42.1668311 35.4622068,41.7763068 L47.0322068,30.2063068 C47.4227311,29.8157825 47.4227311,29.1826175 47.0322068,28.7920932 C46.6416825,28.4015689 46.0085175,28.4015689 45.6179932,28.7920932 Z" id="Stroke-18" fill="#05BDFF" fill-rule="nonzero" mask="url(#mask-2)"></path>
                    <path d="M52.2929932,30.1170932 L45.0479932,37.3620932 C44.6574689,37.7526175 44.6574689,38.3857825 45.0479932,38.7763068 C45.4385175,39.1668311 46.0716825,39.1668311 46.4622068,38.7763068 L53.7072068,31.5313068 C54.0977311,31.1407825 54.0977311,30.5076175 53.7072068,30.1170932 C53.3166825,29.7265689 52.6835175,29.7265689 52.2929932,30.1170932 Z" id="Stroke-19" fill="#05BDFF" fill-rule="nonzero" mask="url(#mask-2)"></path>
                </g>
            </g>
        </g>
    </g>
</svg>