<?xml version="1.0" encoding="UTF-8"?>
<svg width="65px" height="73px" viewBox="0 0 65 73" version="1.1" xmlns="http://www.w3.org/2000/svg" xmlns:xlink="http://www.w3.org/1999/xlink">
    <!-- Generator: Sketch 46.1 (44463) - http://www.bohemiancoding.com/sketch -->
    <title>Page 1</title>
    <desc>Created with Sketch.</desc>
    <defs></defs>
    <g id="Proto---general" stroke="none" stroke-width="1" fill="none" fill-rule="evenodd">
        <g id="Home-main" transform="translate(-811.000000, -173.000000)">
            <g id="home-main-action-copy-2" transform="translate(687.000000, 129.000000)">
                <g id="Page-1" transform="translate(125.000000, 45.000000)">
                    <path d="M51.8266,11.1294 L56.9736,11.1294 C59.9356,11.1294 62.3366,13.2644 62.3366,15.8994 L62.3366,47.6974 C62.3366,50.3314 59.9356,52.4674 56.9736,52.4674 L24.5736,52.4674 C21.6116,52.4674 19.2106,50.3314 19.2106,47.6974 L19.2106,15.8994 C19.2106,13.2644 21.6116,11.1294 24.5736,11.1294 L29.7796,11.1294 L51.8266,11.1294 Z" id="Fill-1" fill="#FFFFFF"></path>
                    <path d="M24.5736,12.1294 C22.1392672,12.1294 20.2106,13.8446817 20.2106,15.8994 L20.2106,47.6974 C20.2106,49.7514998 22.1396833,51.4674 24.5736,51.4674 L56.9736,51.4674 C59.4075167,51.4674 61.3366,49.7514998 61.3366,47.6974 L61.3366,15.8994 C61.3366,13.8446817 59.4079328,12.1294 56.9736,12.1294 L24.5736,12.1294 Z M56.9736,10.1294 C60.4636677,10.1294 63.3366,12.6844744 63.3366,15.8994 L63.3366,47.6974 C63.3366,50.9116348 60.4633071,53.4674 56.9736,53.4674 L24.5736,53.4674 C21.0838929,53.4674 18.2106,50.9116348 18.2106,47.6974 L18.2106,15.8994 C18.2106,12.6844744 21.0835323,10.1294 24.5736,10.1294 L56.9736,10.1294 Z" id="Stroke-3" fill="#2E47B4" fill-rule="nonzero"></path>
                    <path d="M47.9136,7.4421 L50.3876,7.4421 C51.6636,7.4421 52.6976,8.4761 52.6976,9.7521 L52.6976,14.6721 C52.6976,15.9471 51.6636,16.9821 50.3876,16.9821 L31.1586,16.9821 C29.8836,16.9821 28.8496,15.9471 28.8496,14.6721 L28.8496,9.7521 C28.8496,8.4761 29.8836,7.4421 31.1586,7.4421 L33.6336,7.4421 L33.6186,7.1041 C33.6186,3.1811 36.7996,0.0001 40.7236,0.0001 L40.8236,0.0001 C44.7476,0.0001 47.9286,3.1811 47.9286,7.1041 L47.9136,7.4421 Z" id="Fill-5" fill="#FFFFFF"></path>
                    <path d="M46.8682371,8.4421 L46.9145833,7.39776494 L46.9286,7.1041 C46.9286,3.73325189 44.1951824,1.0001 40.8236,1.0001 L40.7236,1.0001 C37.3520176,1.0001 34.6186,3.73325189 34.6176167,7.05976494 L34.6789629,8.4421 L31.1586,8.4421 C30.4357971,8.4421 29.8496,9.02847246 29.8496,9.7521 L29.8496,14.6721 C29.8496,15.3951398 30.4362093,15.9821 31.1586,15.9821 L50.3876,15.9821 C51.110903,15.9821 51.6976,15.3952276 51.6976,14.6721 L51.6976,9.7521 C51.6976,9.02838475 51.1113153,8.4421 50.3876,8.4421 L46.8682371,8.4421 Z M50.3876,6.4421 C52.2158847,6.4421 53.6976,7.92381525 53.6976,9.7521 L53.6976,14.6721 C53.6976,16.4996632 52.2156064,17.9821 50.3876,17.9821 L31.1586,17.9821 C29.3313719,17.9821 27.8496,16.4994416 27.8496,14.6721 L27.8496,9.7521 C27.8496,7.92403684 29.3310937,6.4421 31.1586,6.4421 L32.6452567,6.4421 C32.9821448,2.27622962 36.4704055,-0.9999 40.7236,-0.9999 L40.8236,-0.9999 C45.0639587,-0.9999 48.5439937,2.25648529 48.8979712,6.4421 L50.3876,6.4421 Z" id="Stroke-7" fill="#2E47B4" fill-rule="nonzero"></path>
                    <path d="M43.1584,7.3025 C43.1584,8.6195 42.0904,9.6875 40.7734,9.6875 C39.4564,9.6875 38.3884,8.6195 38.3884,7.3025 C38.3884,5.9855 39.4564,4.9175 40.7734,4.9175 C42.0904,4.9175 43.1584,5.9855 43.1584,7.3025" id="Fill-9" fill="#2E47B4"></path>
                    <path d="M48.3654,45.9359 C48.3654,59.2919 37.5384,70.1189 24.1824,70.1189 C10.8274,70.1189 0.0004,59.2919 0.0004,45.9359 C0.0004,32.5799 10.8274,21.7529 24.1824,21.7529 C37.5384,21.7529 48.3654,32.5799 48.3654,45.9359" id="Fill-11" fill="#DCF8FF"></path>
                    <path d="M47.3654,45.9359 C47.3654,33.1321847 36.9861153,22.7529 24.1824,22.7529 C11.3795365,22.7529 1.0004,33.132333 1.0004,45.9359 C1.0004,58.739467 11.3795365,69.1189 24.1824,69.1189 C36.9861153,69.1189 47.3654,58.7396153 47.3654,45.9359 Z M49.3654,45.9359 C49.3654,59.8441847 38.0906847,71.1189 24.1824,71.1189 C10.2749542,71.1189 -0.9996,59.8440237 -0.9996,45.9359 C-0.9996,32.0277763 10.2749542,20.7529 24.1824,20.7529 C38.0906847,20.7529 49.3654,32.0276153 49.3654,45.9359 Z" id="Stroke-13" fill="#05BDFF" fill-rule="nonzero"></path>
                    <path d="M25.3586,29.5694 C25.3586,29.0171153 24.9108847,28.5694 24.3586,28.5694 C23.8063153,28.5694 23.3586,29.0171153 23.3586,29.5694 L23.3586,47.1426842 L33.9263181,53.3303543 C34.4029146,53.6094138 35.0154948,53.4492784 35.2945543,52.9726819 C35.5736138,52.4960854 35.4134784,51.8835052 34.9368819,51.6044457 L25.3586,45.9961158 L25.3586,29.5694 Z" id="Stroke-15" fill="#05BDFF" fill-rule="nonzero"></path>
                </g>
            </g>
        </g>
    </g>
</svg>