<?xml version="1.0" encoding="UTF-8"?>
<svg width="22px" height="22px" viewBox="0 0 22 22" version="1.1" xmlns="http://www.w3.org/2000/svg" xmlns:xlink="http://www.w3.org/1999/xlink">
    <!-- Generator: Sketch 46.1 (44463) - http://www.bohemiancoding.com/sketch -->
    <title>icon/practitioners</title>
    <desc>Created with Sketch.</desc>
    <defs>
        <polygon id="path-1" points="14 0.9082 14 12 0.0004 12 0.0004 0.9082"></polygon>
    </defs>
    <g id="Symbols" stroke="none" stroke-width="1" fill="none" fill-rule="evenodd">
        <g id="icon/practitioners">
            <rect id="Rectangle" x="0" y="0" width="22" height="22"></rect>
            <g id="Page-1" transform="translate(4.000000, 1.000000)">
                <path d="M10.2558,3.3819 C10.2558,5.2499 8.7418,6.7639 6.8738,6.7639 C5.0058,6.7639 3.4918,5.2499 3.4918,3.3819 C3.4918,1.5139 5.0058,-0.0001 6.8738,-0.0001 C8.7418,-0.0001 10.2558,1.5139 10.2558,3.3819" id="Fill-1" fill="#373737"></path>
                <g id="Group-5" transform="translate(0.000000, 7.609700)">
                    <mask id="mask-2" fill="white">
                        <use xlink:href="#path-1"></use>
                    </mask>
                    <g id="Clip-4"></g>
                    <path d="M7.2764,0.9082 L8.0394,8.0222 L6.9334,9.7822 L5.8554,8.0222 L6.4844,0.9212 C3.0304,1.0772 0.0004,3.9432 0.0004,7.4342 L0.0004,12.0002 L14.0004,12.0002 L14.0004,7.4342 C14.0004,3.8572 10.8484,0.9302 7.2764,0.9082" id="Fill-3" fill="#373737" mask="url(#mask-2)"></path>
                </g>
            </g>
        </g>
    </g>
</svg>